"id","account_type_id","description","account_group","status","creator_id","created_at","updated_at"
"1","2","Telephone and Internet","20022","1","1","2018-11-06 01:03:40","2018-11-06 01:03:40"
"2","2","Salaries and Wages","20005","1","1","2018-11-06 01:03:40","2018-11-06 01:03:40"
"3","2","Commission","20004","1","1","2018-11-06 01:03:40","2018-11-06 01:03:40"
"4","2","Recoverable Expenses","20002","1","1","2018-11-06 01:03:40","2018-11-06 01:03:40"
"5","1","Consulting Income","10001","1","1","2018-11-06 01:03:40","2018-11-06 01:03:40"
"6","2","Bank","20020","1","1","2018-11-06 01:03:40","2018-11-06 01:03:40"
"7","2","Insurance","20021","1","1","2018-11-06 01:03:40","2018-11-06 01:03:40"
"8","2","Entertainment","20030","1","1","2018-11-06 01:03:40","2018-11-06 01:03:40"
"9","2","Travel and Accommodation","20031","1","1","2018-11-06 01:03:40","2018-11-06 01:03:40"
"10","2","Stationary","20032","1","1","2018-11-06 01:03:40","2018-11-06 01:03:40"
"11","2","Marketing","20040","1","1","2018-11-06 01:03:40","2018-11-06 01:03:40"
"12","2","Equipment","20050","1","1","2018-11-06 01:03:40","2018-11-06 01:03:40"
"13","2","Computer Expenses","20051","1","1","2018-11-06 01:03:40","2018-11-06 01:03:40"
"14","2","Consulting Expenses","20070","1","1","2018-11-06 01:03:40","2018-11-06 01:03:40"
"15","2","Tax - VAT","20010","1","1","2018-11-06 01:03:40","2018-11-06 01:03:40"
"16","2","Accounting","20001","1","1","2018-11-06 01:03:40","2018-11-06 01:03:40"
"17","2","Staff Welfare","20029","1","1","2018-11-06 01:03:40","2018-11-06 01:03:40"
"18","3","Bank Balance","30001","1","1","2018-11-06 01:03:40","2018-11-06 01:03:40"
"19","2","Hosting","20003","1","1","2018-11-06 01:03:40","2018-11-06 01:03:40"
"20","2","Security","20045","1","1","2018-11-06 01:03:40","2018-11-06 01:03:40"
"21","2","Rent","20046","1","1","2018-11-06 01:03:40","2018-11-06 01:03:40"
"22","2","Office Expenses","20060","1","1","2020-05-25 09:31:23","2020-05-25 09:35:21"
"23","2","Repairs and Maintenance","20061","1","1","2020-05-25 09:36:55","2020-05-25 09:36:55"
"24","2","Training","20035","1","1","2023-08-08 07:44:55","2023-08-08 07:44:55"
