"id","anniversary","emp_id","name","email","phone","contact_email","contact_phone","relationship","anniversary_date","status_id","created_at","updated_at"
"1","1","1","Black Panther","stefan@blackboardbi.com","0555555555","1","1","1","1986-01-15","1","2023-09-18 13:06:58","2023-09-18 13:06:58"
"2","1","456","Oliver Queen","a@example","0555555555","1","1","1","1986-02-15","1","2023-09-18 13:07:59","2023-09-18 13:07:59"
"3","1","457","Barry Allen","b@example","0555555555","1","1","1","1986-03-15","1","2023-09-18 13:08:43","2023-09-18 13:08:43"
"4","1","458","Illyana Rastputtin","c@example","0555555555","1","1","1","1986-04-15","1","2023-09-18 13:09:25","2023-09-18 13:26:16"
"5","1","459","Peter Quill","d@example","0555555555","1","1","1","1986-05-15","1","2023-09-18 13:10:11","2023-09-18 13:10:11"
"6","1","460","Mikey Mouse","e@example","0555555555","1","1","1","1986-06-15","1","2023-09-18 13:11:33","2023-09-18 13:11:33"
"7","1","461","Spider Man","f@example","0555555555","1","1","1","1986-07-15","1","2023-09-18 13:23:33","2023-09-18 13:23:33"
"8","1","462","Peter Parker","g@example","0555555555","1","1","1","1986-08-15","1","2023-09-18 13:24:37","2023-09-18 13:24:37"
"9","1","463","Donald Duck","h@example","0555555555","1","1","1","1986-10-16","1","2023-09-18 13:25:36","2023-10-21 15:09:33"
"10","1","464","Kitty Pryde","i@example","0555555555","1","1","1","1986-09-15","1","2023-09-18 13:29:32","2023-09-18 13:29:32"
"11","1","465","Captain America","j@example","0555555555","1","1","1","1986-11-15","1","2023-09-18 13:30:21","2023-09-18 13:30:21"
"12","1","455","Iron Man","mike@blackboardbi.com","0555555555","1","1","1","1986-12-15","1","2023-09-18 13:31:04","2023-09-18 13:31:04"
"13","1","463","Donnie Duck",NULL,NULL,"1","1","6","2023-10-30","1","2023-10-21 15:10:44","2023-10-21 15:10:44"
