"id","assessment_id","assessment_task_description","notes","created_at","updated_at"
"1","1","Power BI Advanced training","5 day course at Microsoft","2023-09-20 09:31:01","2023-09-20 09:31:01"
"2","2","Power BI Advanced training","5 day course at Microsoft","2023-09-29 06:33:07","2023-09-29 06:33:07"
"3","3","Do SQL developer course","SQL101","2023-10-13 14:24:49","2023-10-13 14:24:49"
"4","3","Power BI introduction","Use the learning platform","2023-10-17 07:38:16","2023-10-17 07:38:16"
"5","4","Do SQL developer course","SQL101","2023-10-17 07:41:39","2023-10-17 07:41:39"
"6","4","Power BI introduction","Use the learning platform","2023-10-17 07:41:39","2023-10-17 07:41:39"
"7","5","Do SQL developer course","SQL101","2023-10-18 08:19:22","2023-10-18 08:19:22"
"9","5","Oracle ETL","Study","2023-10-18 08:21:02","2023-10-18 08:21:02"
