"id","customer_invoice_number","inv_ref","invoice_date","due_date","paid_date","customer_id","company_id","customer_unallocate_date","bill_status","invoice_notes","invoice_value","cust_inv_ref","project_id","resource_id","created_at","updated_at","currency"
"2","SI010000","AR0001","2023-09-29",NULL,NULL,"2","1","2023-10-04","3","September 2023","7115.63","CR0001","2",NULL,"2023-09-29 11:24:16","2023-10-04 08:53:19","ZAR"
"7806","SI010001","SI0034","2023-10-03","2023-10-13","2023-10-04","2","1",NULL,"2",NULL,"6445.00","SI0034","2",NULL,"2023-10-03 07:55:32","2023-10-04 08:48:24","ZAR"
"7807","SI010002","Fin AR INo 1","2023-10-03","2023-10-13",NULL,"2","1",NULL,"1","Sept 2023 invoice","1987.50","CustRef No 1","2",NULL,"2023-10-03 13:58:20","2023-10-04 11:55:05","ZAR"
