"id","module_name","button_functions","route","role_id","status_id","created_at","updated_at"
"1","Timesheet","Add,List","timesheet.create,timesheet.index","1,2,3,4,5","1","2019-04-11 13:30:59","2019-08-27 04:10:58"
"3","CV","Add,List","cv.user,cv.index",,"1","2019-04-11 15:01:22","2019-04-17 13:49:49"
"4","Leave","Add,List","leave.create,leave.index",,"1","2019-04-17 11:13:19","2019-04-17 11:13:19"
"5","Leave Statement","View","leave_statement.index",,"1","2019-04-17 11:15:16","2019-04-17 11:15:16"
"6","Company","List","company.index",,"1","2019-04-17 11:16:59","2019-04-17 11:16:59"
"7","Planned Expenses","Add,List","plan_exp.create,plan_exp.index",,"1","2019-04-17 11:18:27","2019-04-17 11:18:27"
"8","Expense Tracking","Add,List","exptracking.create,exptracking.index",,"1","2019-04-17 11:19:52","2019-04-17 11:19:52"
"9","Resource","Add,List","users.create,resource.index",,"1","2019-04-17 11:23:04","2019-04-17 11:23:04"
"10","Logbook","Add,List","logbook.create,logbook.index",,"1","2019-04-17 11:26:49","2019-04-17 11:26:49"
"11","Equipment","Add,List","assetreg.create,assetreg.index",,"1","2019-04-17 11:28:40","2019-04-17 11:28:40"
"12","Assessment","List","assessment.index",,"1","2019-04-17 11:30:20","2019-04-17 11:30:20"
"13","Tasks","Add,List","task.create,task.index",,"1","2019-04-17 12:14:15","2019-04-17 12:14:15"
"14","Scouting","Add,List","scouting.create,scouting.index",,"1","2019-04-17 12:18:19","2019-04-17 12:18:19"
"15","Customer","Add,List","customer.create,customer.index",,"1","2019-04-17 12:19:31","2019-04-17 12:19:31"
"16","Quotation","Add,List","quotation.create,quotation.index",,"1","2019-04-17 12:20:47","2019-04-17 12:20:47"
"17","Customer Invoice","Add,List","customer.invoice_create,customer.invoice",,"1","2019-04-17 12:22:43","2019-04-17 12:22:43"
"18","Vendor","Add,List","vendor.create,vendor.index",,"1","2019-04-17 12:23:56","2019-04-17 12:23:56"
"19","Vendor Invoice","Add,List","function_newinvoice.create,vendor.invoice",,"1","2019-04-17 12:26:10","2019-04-17 12:26:10"
"20","Documents","List","document.index",,"1","2019-04-17 12:28:03","2019-04-17 12:28:03"
"21","DigiSign","List","digisign.index",,"1","2019-04-17 12:29:21","2019-04-17 12:29:21"
"22","Consultant Reports","List","reports.index",,"1","2019-04-17 12:32:04","2019-04-17 12:32:04"
"23","Customer Reports","List","reports.customer",,"1","2019-04-17 12:33:50","2019-04-17 12:33:50"
"24","Management Reports","List","reports.manager",,"1","2019-04-17 12:36:00","2019-04-17 12:36:00"
"25","Roles","List","module.index",,"1","2019-04-17 12:37:46","2019-04-17 12:37:46"
"26","Config","List","configs.index",,"1","2019-04-17 12:40:19","2019-04-17 12:40:19"
"27","Settings","List","settings",,"1","2019-04-17 12:42:08","2019-04-17 12:42:08"
