"id","sprint_id","review_type","body","created_at","updated_at"
"1","1","went well","Communication","2023-09-20 17:29:42","2023-09-20 17:29:42"
"2","1","needs improvement","Plan tasks in more detail and break it up into smaller tasks.","2023-09-20 17:30:23","2023-09-20 17:30:23"
"3","1","went wrong","Planning","2023-09-20 17:30:35","2023-09-20 17:30:35"
"4","3","went well","Goals achieved","2023-09-21 08:59:28","2023-09-21 08:59:28"
"5","3","went wrong","Internal communication","2023-09-21 08:59:44","2023-09-21 08:59:44"
"6","3","needs improvement","Ensure daily stand-ups are attended by all project members.","2023-09-21 08:59:59","2023-09-21 08:59:59"
"7","2","went well","Communication","2023-09-21 09:00:52","2023-09-21 09:00:52"
"8","2","went wrong","Planning","2023-09-21 09:01:06","2023-09-21 09:01:06"
"9","2","needs improvement","Plan tasks in more detail and break it up into smaller tasks.","2023-09-21 09:01:24","2023-09-21 09:01:24"
